CCTV1,http://video.qd.sdu.edu.cn/liverespath/b455c7a019d404d571655c457e0ee8a9440a7802/index.m3u8
09-23-2024 Sichuan checked •1920x1080 • Fast
CCTV2,http://video.qd.sdu.edu.cn/liverespath/6b13fe5368d391761312a985ace065c0ecad2f5e/index.m3u8
09-23-2024 Hunan checked •1920x1080 • Fast
CCTV4,http://video.qd.sdu.edu.cn/liverespath/c70d81eefb04fef7777c2a5aab4ddc9459ce4246/index.m3u8
09-23-2024 Shaanxi checked •1920x1080 • Faster
CCTV5,http://video.qd.sdu.edu.cn/liverespath/3f76badfb3a23d95f26ff573a93902bbdb8b8e98/index.m3u8
09-23-2024 Guangdong checked •1920x1080
CCTV3,http://video.qd.sdu.edu.cn/liverespath/f76f9947c68be18d7a456e25aa59a08c5747e6a5/index.m3u8
09-22-2024 Chongqing checked •1920x1080 • Fast
CCTV8,http://video.qd.sdu.edu.cn/liverespath/9e6e3b618b5dc902d992949f0c669bb674f6cde8/index.m3u8
CCTV11,http://video.qd.sdu.edu.cn/liverespath/3d0aa0f1604f13f0ae90c2dc0590ca22a1bcaaa2/index.m3u8
09-20-2024 New South Wales checked •1024x576 • Fast
CCTV14,http://video.qd.sdu.edu.cn/liverespath/0e0973e58d4835f4b872548164462930003f77b4/index.m3u8
09-20-2024 New Taipei City checked •1920x1080 • Fast
CCTV5+,http://video.qd.sdu.edu.cn/liverespath/7b02d30e42de3c0078c158ce81421accad3a8400/index.m3u8
09-19-2024 South Carolina checked •1920x1080
CCTV10,http://video.qd.sdu.edu.cn/liverespath/96f212c8bb9eca90c8f15ae041b4f64b3a3ba67b/index.m3u8
09-18-2024 New South Wales checked •1920x1080
CCTV15,http://video.qd.sdu.edu.cn/liverespath/59c02d176e7c3b05a62a9bb42be1ca2a92df2e1c/index.m3u8
09-17-2024 Guangxi checked •1024x576 • Faster
CCTV12,http://video.qd.sdu.edu.cn/liverespath/fb84bde1de15cdb0308a7910cebc0497594ae94e/index.m3u8
09-16-2024 Shandong checked •1920x1080 • Faster
CETV-3,http://video.qd.sdu.edu.cn/liverespath/3a13f3b554cd6c3764599392bb43650e4e015b87/index.m3u8
09-07-2024 Washington checked •1024x576
CETV-1,http://video.qd.sdu.edu.cn/liverespath/85558d86e1bcab9405a28515bc414ba3676ecbde/index.m3u8
08-14-2024 checked
CETV-4,http://video.qd.sdu.edu.cn/liverespath/d9fd740848ee6bc5d883832bba7cafb90524390e/index.m3u8
08-14-2024 checked
CCTV6,http://video.qd.sdu.edu.cn/liverespath/f2f39ee2105c85c32df375728a51b5d89d3afab4/index.m3u8
09-18-2024 Heilongjiang checked •1920x1080 • Fast
CCTV9,http://video.qd.sdu.edu.cn/liverespath/0d0f0da65ba843b8d1dd6fed315bfea896ddd20d/index.m3u8
09-17-2024 New Taipei City checked •1920x1080 • Faster
CCTV7,http://video.qd.sdu.edu.cn/liverespath/f116a0a5035935a3435155998163d8eaa60554c3/index.m3u8
09-16-2024 Shandong checked •1920x1080 • Fast
CCTV1,http://video.qd.sdu.edu.cn/liverespath/d655e6a30c2b338fe76bdc1ecf72b7f1c373c33b/index.m3u8
08-14-2024 checked
CCTV13,http://video.qd.sdu.edu.cn/liverespath/8a2f3cd1ae4091c8d073cd239518f24cd4560d8e/index.m3u8